{
    "discord": {
        "token": "asd",
        "owner_id": 123,
        "support_guild_id": 123,
        "support_lottery_channel_id": 123,
        "global_prefix": "j!",
        "speak_prefixes": ["josé ", "José ", "jose ", "Jose ", "joseva ", "Joseva ", "joséva ", "Joséva "]
    },
    "josecoin": {
        "url": "http://0.0.0.0:8081/api",
        "token": "asd"
    },
    "postgres": {
        "user": "aa",
        "database": "bb"
    },
    "logging_levels": {
        "DEBUG": "asd",
        "INFO": "asd",
        "WARNING": "asd",
        "ERROR": "asd",
        "60": "asd"
    },
    "extra_logs": {
        "datadog": false,
        "guild_joinlogs": "asd",
        "metrics": "asd"
    },
    "apikeys": {
        "wolframalpha": "",
        "owm": "",
        "fixerio": ""
    }
}
